{
    "@context": "http://www.schema.org",
    "@type": "Organization",
    "name": "Wireless Match",
    "url": "https://wirelessmatch.com/",
    "sameAs": [
        "http://www.facebook.com/WirelessMatch",
        "https://www.linkedin.com/company/wireless-match/"
    ],
    "logo": "https://wirelessmatch.com/images/wirelessmatch_logo.svg",
    "image": "https://wirelessmatch.com/images/advertised-pic.png",
    "description": "Wireless Match is a free tool & service that helps you save money on your monthly wireless bill.",
    "address": {
        "@type": "PostalAddress",
        "streetAddress": "111 N. Orange Ave ",
        "addressLocality": "Orlando",
        "addressRegion": "FL",
        "postalCode": "32801",
        "addressCountry": "USA"
    },
    "contactPoint": {
        "@type": "ContactPoint",
        "telephone": "8444WMATCH",
        "contactType": "sales"
    }
}
